"","GHG Emissions","People welfare","Economic Development","Emitters size","Distance from source to sink","Capture potential","Decarbonisation potential","Incremental oil produced","CO2 storage potential","Oil price","Carbon price","Transport option","Transport routing","Regulatory Framework","Support to R&D","Decarbonisation willingness","Relation with industry","Trust in institutions","Public acceptance","Cluster potential","Demand for low-carbon products"
"GHG Emissions","","-1","","","","1","","","","","","","","","","","","","","",""
"People welfare","","","","","","","","","","","","","","","","","","","","",""
"Economic Development","","1","","","","","","","","","","","","","","","","","","",""
"Emitters size","","","","","","1","0.38","","","","","0.73","","","","","","","","",""
"Distance from source to sink","","","","","","","","","","","","0.72","","","","","","","","",""
"Capture potential","-1","","","","","","","","","","","","","","","","","","","",""
"Decarbonisation potential","","","","","","1","","","","","","","","","","","","","","",""
"Incremental oil produced","","","","","","0.83","","","","0","","0.84","","","","","","","","",""
"CO2 storage potential","","","","","","","","","","","","","","","","","","","","",""
"Oil price","","","","","","","","","","","","","","","","","","","","",""
"Carbon price","","","","","","1","","","1","0.81","","","","","","","","","","",""
"Transport option","","","","","","","","","1","","","","","","","","","","","0.69",""
"Transport routing","","","","","","","","","","","","0.56","","","","","","","","",""
"Regulatory Framework","","","","","","","","","","","","","-0.53","","","","","","","",""
"Support to R&D","","","0.7","","","","","","","","","","","","","","","","","",""
"Decarbonisation willingness","-1","","1","","","","1","","","","1","","","1","0.52","","","","","",""
"Relation with industry","","","","","","","","","","","","","","0.52","0.77","","","0.58","","1",""
"Trust in institutions","","","","","","","","","","","","","","0.78","","","","","0.64","",""
"Public acceptance","","","","","","","","","","","","","","","","","","","","",""
"Cluster potential","","","","","","","","","0.77","","","","","","","","","","","",""
"Demand for low-carbon products","1","","","","","","1","","","","","","","","","1","","","","",""
