"","Emissions","People welfare","Economic Development","Emitters size","Capture potential","Decarbonisation potential","Incremental oil produced","CO2 storage potential","Oil price","Carbon price","Transport option","Transport routing","Regulatory Framework","Support to R&D","Decarbonisation willingness","Relation with industry","Trust in institutions","Public acceptance","Cluster potential","MVR"
"Emissions","","-1","","","","","","","","","","","","","","","","","",""
"People welfare","","","","","","","","","","","","","","","","","","","",""
"Economic Development","1","","","","","","","","","","","","","","","","","","",""
"Emitters size","1","","","","0.97","","","","","","","","","","","","","","1",""
"Capture potential","","","","","","","","","","","","","","","","","","","",""
"Decarbonisation potential","","","","","","","","","","","","","","","","","","","1",""
"Incremental oil produced","0.63","","","","","","","","","","","","","","","","","","",""
"CO2 storage potential","-1","","","","","","","","","","","","","","","","","","",""
"Oil price","","","1","","","","1","","","","","","","","","","","","",""
"Carbon price","","","","0.89","","0.72","0.7","","","","","","","","","","","","",""
"Transport option","","","","","","","","","","","","","","","","","","","","0.16"
"Transport routing","","","","","","","","","","","1","","","","","","","","","0.56"
"Regulatory Framework","","","","","","","","","","1","","","","0.63","","","-0.98","0.59","0.47",""
"Support to R&D","","","","","0.78","","","","","","0.28","","","","","","0.8","","0.28",""
"Decarbonisation willingness","","","","0.58","","","","","","","","","0.75","","","","","","0.53",""
"Relation with industry","","","","","","","","","","","","","","0.7","","","","","0.53",""
"Trust in institutions","","","","","","","","","","","","","","","","","","0.81","0.39",""
"Public acceptance","","","","","","","","","","","","","","","","","","","",""
"Cluster potential","-0.92","0.17","","","1","","","","","","0.61","0.59","","","","","","","",""
"MVR","","","","","","","","","","","","","","","","","","1","",""
